module github.com/burntcarrot/rowix

go 1.18

require (
	github.com/Pallinder/go-randomdata v1.2.0
	github.com/fatih/color v1.13.0
	github.com/google/go-cmp v0.5.9
	github.com/google/uuid v1.3.0
	github.com/gorilla/websocket v1.5.0
	github.com/mattn/go-runewidth v0.0.13
	github.com/nsf/termbox-go v1.1.1
	github.com/sirupsen/logrus v1.9.0
)

require (
	github.com/Pallinder/go-randomdata v1.2.0 // indirect
	github.com/mattn/go-colorable v0.1.9 // indirect
	github.com/mattn/go-isatty v0.0.16 // indirect
	github.com/rivo/uniseg v0.2.0 // indirect
	golang.org/x/sys v0.0.0-20220811171246-fbc7d0a398ab // indirect
	golang.org/x/text v0.5.0 // indirect
)
